..................
----------------------------------------------------------------------
Ran 18 tests in 0.001s

OK
Name               Stmts   Miss Branch BrPart  Cover   Missing
--------------------------------------------------------------
Diplomacy.py          58      0     36      0   100%
TestDiplomacy.py     102      0      0      0   100%
--------------------------------------------------------------
TOTAL                160      0     36      0   100%
